%YAML 1.1
%TAG !u! tag:unity3d.com,2011:
--- !u!1001 &1419834240539302189
PrefabInstance:
  m_ObjectHideFlags: 0
  serializedVersion: 2
  m_Modification:
    m_TransformParent: {fileID: 0}
    m_Modifications:
    - target: {fileID: 7666665618949280961, guid: ce68af1a54e94dc4c8f42770dbc9c6e5,
        type: 3}
      propertyPath: m_Name
      value: lana
      objectReference: {fileID: 0}
    - target: {fileID: 878026254442701713, guid: ce68af1a54e94dc4c8f42770dbc9c6e5,
        type: 3}
      propertyPath: m_LocalPosition.x
      value: -5.4
      objectReference: {fileID: 0}
    - target: {fileID: 878026254442701713, guid: ce68af1a54e94dc4c8f42770dbc9c6e5,
        type: 3}
      propertyPath: m_LocalPosition.y
      value: -3
      objectReference: {fileID: 0}
    - target: {fileID: 878026254442701713, guid: ce68af1a54e94dc4c8f42770dbc9c6e5,
        type: 3}
      propertyPath: m_LocalPosition.z
      value: 1
      objectReference: {fileID: 0}
    - target: {fileID: 878026254442701713, guid: ce68af1a54e94dc4c8f42770dbc9c6e5,
        type: 3}
      propertyPath: m_LocalRotation.x
      value: -0
      objectReference: {fileID: 0}
    - target: {fileID: 878026254442701713, guid: ce68af1a54e94dc4c8f42770dbc9c6e5,
        type: 3}
      propertyPath: m_LocalRotation.y
      value: -0
      objectReference: {fileID: 0}
    - target: {fileID: 878026254442701713, guid: ce68af1a54e94dc4c8f42770dbc9c6e5,
        type: 3}
      propertyPath: m_LocalRotation.z
      value: -0
      objectReference: {fileID: 0}
    - target: {fileID: 878026254442701713, guid: ce68af1a54e94dc4c8f42770dbc9c6e5,
        type: 3}
      propertyPath: m_LocalRotation.w
      value: 1
      objectReference: {fileID: 0}
    - target: {fileID: 878026254442701713, guid: ce68af1a54e94dc4c8f42770dbc9c6e5,
        type: 3}
      propertyPath: m_RootOrder
      value: 0
      objectReference: {fileID: 0}
    - target: {fileID: 878026254442701713, guid: ce68af1a54e94dc4c8f42770dbc9c6e5,
        type: 3}
      propertyPath: m_LocalEulerAnglesHint.x
      value: 0
      objectReference: {fileID: 0}
    - target: {fileID: 878026254442701713, guid: ce68af1a54e94dc4c8f42770dbc9c6e5,
        type: 3}
      propertyPath: m_LocalEulerAnglesHint.y
      value: 0
      objectReference: {fileID: 0}
    - target: {fileID: 878026254442701713, guid: ce68af1a54e94dc4c8f42770dbc9c6e5,
        type: 3}
      propertyPath: m_LocalEulerAnglesHint.z
      value: 0
      objectReference: {fileID: 0}
    - target: {fileID: 878026254442701713, guid: ce68af1a54e94dc4c8f42770dbc9c6e5,
        type: 3}
      propertyPath: m_LocalScale.x
      value: 0.7
      objectReference: {fileID: 0}
    - target: {fileID: 878026254442701713, guid: ce68af1a54e94dc4c8f42770dbc9c6e5,
        type: 3}
      propertyPath: m_LocalScale.y
      value: 0.7
      objectReference: {fileID: 0}
    - target: {fileID: 4583425199120483469, guid: ce68af1a54e94dc4c8f42770dbc9c6e5,
        type: 3}
      propertyPath: m_LocalPosition.y
      value: -1.82
      objectReference: {fileID: 0}
    - target: {fileID: 6273240929238171171, guid: ce68af1a54e94dc4c8f42770dbc9c6e5,
        type: 3}
      propertyPath: m_LocalPosition.y
      value: -1.82
      objectReference: {fileID: 0}
    - target: {fileID: 6904341969333151603, guid: ce68af1a54e94dc4c8f42770dbc9c6e5,
        type: 3}
      propertyPath: m_LocalPosition.y
      value: -1.82
      objectReference: {fileID: 0}
    - target: {fileID: 8290294940849859469, guid: ce68af1a54e94dc4c8f42770dbc9c6e5,
        type: 3}
      propertyPath: HumorSprites.Array.size
      value: 4
      objectReference: {fileID: 0}
    - target: {fileID: 8290294940849859469, guid: ce68af1a54e94dc4c8f42770dbc9c6e5,
        type: 3}
      propertyPath: ActorName
      value: lana
      objectReference: {fileID: 0}
    - target: {fileID: 8290294940849859469, guid: ce68af1a54e94dc4c8f42770dbc9c6e5,
        type: 3}
      propertyPath: HumorSprites.Array.data[0].Sprite
      value: 
      objectReference: {fileID: 21300000, guid: 7dec23ba761d2f9448435b643795fd1e,
        type: 3}
    - target: {fileID: 8290294940849859469, guid: ce68af1a54e94dc4c8f42770dbc9c6e5,
        type: 3}
      propertyPath: HumorSprites.Array.data[0].SpriteEyesOpened
      value: 
      objectReference: {fileID: 21300000, guid: fc6342a9bd64a4e45bd93d0326212146,
        type: 3}
    - target: {fileID: 8290294940849859469, guid: ce68af1a54e94dc4c8f42770dbc9c6e5,
        type: 3}
      propertyPath: HumorSprites.Array.data[0].SpriteEyesClosed
      value: 
      objectReference: {fileID: 21300000, guid: 92b8b3e9d2f7ae847b59f2a9e7873fcc,
        type: 3}
    - target: {fileID: 8290294940849859469, guid: ce68af1a54e94dc4c8f42770dbc9c6e5,
        type: 3}
      propertyPath: HumorSprites.Array.data[0].SpriteMouthOpened
      value: 
      objectReference: {fileID: 21300000, guid: b0700d161fa5cde47b8dcefcf7a8ab07,
        type: 3}
    - target: {fileID: 8290294940849859469, guid: ce68af1a54e94dc4c8f42770dbc9c6e5,
        type: 3}
      propertyPath: HumorSprites.Array.data[0].SpriteMouthClosed
      value: 
      objectReference: {fileID: 21300000, guid: ccb15e0f686cf85409ba137a4fcf36b9,
        type: 3}
    - target: {fileID: 8290294940849859469, guid: ce68af1a54e94dc4c8f42770dbc9c6e5,
        type: 3}
      propertyPath: HumorSprites.Array.data[1].Sprite
      value: 
      objectReference: {fileID: 21300000, guid: 775e91e75c59aef4f8cba04a82532d5d,
        type: 3}
    - target: {fileID: 8290294940849859469, guid: ce68af1a54e94dc4c8f42770dbc9c6e5,
        type: 3}
      propertyPath: HumorSprites.Array.data[1].SpriteEyesOpened
      value: 
      objectReference: {fileID: 21300000, guid: a98af8777e158e54ba0d98abb3cae4e8,
        type: 3}
    - target: {fileID: 8290294940849859469, guid: ce68af1a54e94dc4c8f42770dbc9c6e5,
        type: 3}
      propertyPath: HumorSprites.Array.data[1].SpriteEyesClosed
      value: 
      objectReference: {fileID: 21300000, guid: ac0a4627f566766488dd91b05498f536,
        type: 3}
    - target: {fileID: 8290294940849859469, guid: ce68af1a54e94dc4c8f42770dbc9c6e5,
        type: 3}
      propertyPath: HumorSprites.Array.data[1].SpriteMouthOpened
      value: 
      objectReference: {fileID: 21300000, guid: d2f1f8e2dc891804986dbf3974c969dc,
        type: 3}
    - target: {fileID: 8290294940849859469, guid: ce68af1a54e94dc4c8f42770dbc9c6e5,
        type: 3}
      propertyPath: HumorSprites.Array.data[1].SpriteMouthClosed
      value: 
      objectReference: {fileID: 21300000, guid: 4a6cb45fc21e8394aa66edd59bdd7946,
        type: 3}
    - target: {fileID: 8290294940849859469, guid: ce68af1a54e94dc4c8f42770dbc9c6e5,
        type: 3}
      propertyPath: HumorSprites.Array.data[2].Humor
      value: happy
      objectReference: {fileID: 0}
    - target: {fileID: 8290294940849859469, guid: ce68af1a54e94dc4c8f42770dbc9c6e5,
        type: 3}
      propertyPath: HumorSprites.Array.data[2].Sprite
      value: 
      objectReference: {fileID: 21300000, guid: 1958163e25a311f439e7a39c737ad4e6,
        type: 3}
    - target: {fileID: 8290294940849859469, guid: ce68af1a54e94dc4c8f42770dbc9c6e5,
        type: 3}
      propertyPath: HumorSprites.Array.data[2].SpriteEyesOpened
      value: 
      objectReference: {fileID: 21300000, guid: 6a8affec774072a44995319199529bac,
        type: 3}
    - target: {fileID: 8290294940849859469, guid: ce68af1a54e94dc4c8f42770dbc9c6e5,
        type: 3}
      propertyPath: HumorSprites.Array.data[2].SpriteEyesClosed
      value: 
      objectReference: {fileID: 21300000, guid: bf1a0316974ba4f4c926d6602a361b59,
        type: 3}
    - target: {fileID: 8290294940849859469, guid: ce68af1a54e94dc4c8f42770dbc9c6e5,
        type: 3}
      propertyPath: HumorSprites.Array.data[2].SpriteMouthOpened
      value: 
      objectReference: {fileID: 21300000, guid: 8804847cf0630444eb007fd5fc78d0e7,
        type: 3}
    - target: {fileID: 8290294940849859469, guid: ce68af1a54e94dc4c8f42770dbc9c6e5,
        type: 3}
      propertyPath: HumorSprites.Array.data[2].SpriteMouthClosed
      value: 
      objectReference: {fileID: 21300000, guid: ee5a7690857defa43a4c7a97e982e1b5,
        type: 3}
    - target: {fileID: 8290294940849859469, guid: ce68af1a54e94dc4c8f42770dbc9c6e5,
        type: 3}
      propertyPath: HumorSprites.Array.data[3].Humor
      value: annoyed
      objectReference: {fileID: 0}
    - target: {fileID: 8290294940849859469, guid: ce68af1a54e94dc4c8f42770dbc9c6e5,
        type: 3}
      propertyPath: HumorSprites.Array.data[3].Sprite
      value: 
      objectReference: {fileID: 21300000, guid: 22300f79102fd804888b13f2170eef21,
        type: 3}
    - target: {fileID: 8290294940849859469, guid: ce68af1a54e94dc4c8f42770dbc9c6e5,
        type: 3}
      propertyPath: HumorSprites.Array.data[3].SpriteEyesOpened
      value: 
      objectReference: {fileID: 21300000, guid: 0edc426e3fcc68649970c7fffd4056b2,
        type: 3}
    - target: {fileID: 8290294940849859469, guid: ce68af1a54e94dc4c8f42770dbc9c6e5,
        type: 3}
      propertyPath: HumorSprites.Array.data[3].SpriteEyesClosed
      value: 
      objectReference: {fileID: 21300000, guid: b0ec811f19a68414fa5671e73900f4d0,
        type: 3}
    - target: {fileID: 8290294940849859469, guid: ce68af1a54e94dc4c8f42770dbc9c6e5,
        type: 3}
      propertyPath: HumorSprites.Array.data[3].SpriteMouthOpened
      value: 
      objectReference: {fileID: 21300000, guid: cd02325a8b1d34447a5fc3ce6f124843,
        type: 3}
    - target: {fileID: 8290294940849859469, guid: ce68af1a54e94dc4c8f42770dbc9c6e5,
        type: 3}
      propertyPath: HumorSprites.Array.data[3].SpriteMouthClosed
      value: 
      objectReference: {fileID: 21300000, guid: f90909dc5c8c5014eb5a9c855d717424,
        type: 3}
    - target: {fileID: 8290294940849859469, guid: ce68af1a54e94dc4c8f42770dbc9c6e5,
        type: 3}
      propertyPath: affinityText
      value: 
      objectReference: {fileID: 6319672686346665361}
    - target: {fileID: 6774366495873872836, guid: ce68af1a54e94dc4c8f42770dbc9c6e5,
        type: 3}
      propertyPath: m_Mesh
      value: 
      objectReference: {fileID: 0}
    - target: {fileID: 7727780050267066859, guid: ce68af1a54e94dc4c8f42770dbc9c6e5,
        type: 3}
      propertyPath: m_Sprite
      value: 
      objectReference: {fileID: 21300000, guid: 7dec23ba761d2f9448435b643795fd1e,
        type: 3}
    - target: {fileID: 7727780050267066859, guid: ce68af1a54e94dc4c8f42770dbc9c6e5,
        type: 3}
      propertyPath: m_Size.x
      value: 6.5
      objectReference: {fileID: 0}
    - target: {fileID: 7727780050267066859, guid: ce68af1a54e94dc4c8f42770dbc9c6e5,
        type: 3}
      propertyPath: m_Size.y
      value: 19.73
      objectReference: {fileID: 0}
    - target: {fileID: 7727780050267066859, guid: ce68af1a54e94dc4c8f42770dbc9c6e5,
        type: 3}
      propertyPath: m_WasSpriteAssigned
      value: 0
      objectReference: {fileID: 0}
    - target: {fileID: 7836594418405735432, guid: ce68af1a54e94dc4c8f42770dbc9c6e5,
        type: 3}
      propertyPath: m_Sprite
      value: 
      objectReference: {fileID: 21300000, guid: fdd2d91c5512b9041acf345a3c646c2a,
        type: 3}
    m_RemovedComponents: []
  m_SourcePrefab: {fileID: 100100000, guid: ce68af1a54e94dc4c8f42770dbc9c6e5, type: 3}
--- !u!114 &6319672686346665361 stripped
MonoBehaviour:
  m_CorrespondingSourceObject: {fileID: 4902097186321753276, guid: ce68af1a54e94dc4c8f42770dbc9c6e5,
    type: 3}
  m_PrefabInstance: {fileID: 1419834240539302189}
  m_PrefabAsset: {fileID: 0}
  m_GameObject: {fileID: 0}
  m_Enabled: 1
  m_EditorHideFlags: 0
  m_Script: {fileID: 11500000, guid: 9541d86e2fd84c1d9990edf0852d74ab, type: 3}
  m_Name: 
  m_EditorClassIdentifier: 
