%YAML 1.1
%TAG !u! tag:unity3d.com,2011:
--- !u!114 &11400000
MonoBehaviour:
  m_ObjectHideFlags: 0
  m_CorrespondingSourceObject: {fileID: 0}
  m_PrefabInstance: {fileID: 0}
  m_PrefabAsset: {fileID: 0}
  m_GameObject: {fileID: 0}
  m_Enabled: 1
  m_EditorHideFlags: 0
  m_Script: {fileID: 11500000, guid: dc234ab28a32840f5adfb84a075bc023, type: 3}
  m_Name: InkLibrary
  m_EditorClassIdentifier: 
  inkLibrary:
  - compileAutomatically: 0
    inkAsset: {fileID: 102900000, guid: 479306d44e7045b4d92d95fdc2e0b4e0, type: 3}
    jsonAssetPath: {fileID: 0}
    jsonAsset: {fileID: 4900000, guid: 7bbe7c28f82e05d4ba7e42053dc23a46, type: 3}
  - compileAutomatically: 0
    inkAsset: {fileID: 102900000, guid: 1460e815e969b43b8a83a7caa8b48c27, type: 3}
    jsonAssetPath: {fileID: 0}
    jsonAsset: {fileID: 4900000, guid: 6cf48bb6d89824cc69e35b43f9a1aca6, type: 3}
  - compileAutomatically: 0
    inkAsset: {fileID: 102900000, guid: 120794a59db23f444b6d4c98ba58971d, type: 3}
    jsonAssetPath: {fileID: 0}
    jsonAsset: {fileID: 4900000, guid: 0d29367a6646cd54199bd80f526ecd2e, type: 3}
  - compileAutomatically: 0
    inkAsset: {fileID: 102900000, guid: d9c9f8edbab4bfc4eb50d8f206df480a, type: 3}
    jsonAssetPath: {fileID: 0}
    jsonAsset: {fileID: 4900000, guid: 0b1c33a140e7e0b44a8abd7da8fd609d, type: 3}
  - compileAutomatically: 0
    inkAsset: {fileID: 102900000, guid: 928a75060875d804ab92e128a1263485, type: 3}
    jsonAssetPath: {fileID: 0}
    jsonAsset: {fileID: 0}
  - compileAutomatically: 0
    inkAsset: {fileID: 102900000, guid: b88d506722324cb408b2dddcbfa2a4ca, type: 3}
    jsonAssetPath: {fileID: 0}
    jsonAsset: {fileID: 0}
  - compileAutomatically: 0
    inkAsset: {fileID: 102900000, guid: 85064844d9544ce4d90ef955ebe58552, type: 3}
    jsonAssetPath: {fileID: 0}
    jsonAsset: {fileID: 0}
  - compileAutomatically: 0
    inkAsset: {fileID: 102900000, guid: e1d5c4a0583a38546b2f6ca735d69035, type: 3}
    jsonAssetPath: {fileID: 0}
    jsonAsset: {fileID: 0}
  - compileAutomatically: 0
    inkAsset: {fileID: 102900000, guid: 53299aa13e16caf4198ea0f0ed8201af, type: 3}
    jsonAssetPath: {fileID: 0}
    jsonAsset: {fileID: 4900000, guid: cbcc19d0c2bb8cd43b998308e044ca29, type: 3}
  - compileAutomatically: 0
    inkAsset: {fileID: 102900000, guid: c40c4a51f5e857441870dcf082643ed5, type: 3}
    jsonAssetPath: {fileID: 0}
    jsonAsset: {fileID: 0}
  - compileAutomatically: 0
    inkAsset: {fileID: 102900000, guid: b035b48fa28476142a1baa9bd958212c, type: 3}
    jsonAssetPath: {fileID: 0}
    jsonAsset: {fileID: 0}
  - compileAutomatically: 0
    inkAsset: {fileID: 102900000, guid: 6136b7d289a9828478519646ed172192, type: 3}
    jsonAssetPath: {fileID: 0}
    jsonAsset: {fileID: 0}
  - compileAutomatically: 0
    inkAsset: {fileID: 102900000, guid: 26b6e026844df0944a51fa6fef4e335d, type: 3}
    jsonAssetPath: {fileID: 0}
    jsonAsset: {fileID: 0}
  - compileAutomatically: 0
    inkAsset: {fileID: 102900000, guid: 8521a5a866b1bb240ad343fea28ba6fe, type: 3}
    jsonAssetPath: {fileID: 0}
    jsonAsset: {fileID: 0}
  - compileAutomatically: 0
    inkAsset: {fileID: 102900000, guid: 6a0a7c9abeba8cc44b705cd9782f4d5d, type: 3}
    jsonAssetPath: {fileID: 0}
    jsonAsset: {fileID: 0}
  - compileAutomatically: 0
    inkAsset: {fileID: 102900000, guid: 727e5541fe2b76247a27cb48425377b7, type: 3}
    jsonAssetPath: {fileID: 0}
    jsonAsset: {fileID: 0}
  - compileAutomatically: 0
    inkAsset: {fileID: 102900000, guid: 3404f540efa48e846b66afa75d401bea, type: 3}
    jsonAssetPath: {fileID: 0}
    jsonAsset: {fileID: 0}
  - compileAutomatically: 0
    inkAsset: {fileID: 102900000, guid: f7db1598832d2eb46aa76cd41b75c6ae, type: 3}
    jsonAssetPath: {fileID: 0}
    jsonAsset: {fileID: 0}
  pendingCompilationStack: []
  compilationStack: []
